{
  "kind": "collectionType",
  "collectionName": "news_data",
  "info": {
    "name": "news-data",
    "description": ""
  },
  "options": {
    "increments": true,
    "timestamps": true,
    "draftAndPublish": true
  },
  "attributes": {
    "title": {
      "type": "string"
    },
    "description": {
      "type": "richtext"
    },
    "imageBg": {
      "model": "file",
      "via": "related",
      "allowedTypes": [
        "images",
        "files",
        "videos"
      ],
      "plugin": "upload",
      "required": false
    },
    "text": {
      "type": "richtext"
    },
    "custom_news": {
      "collection": "custom-news-1"
    }
  }
}
