{
  "routes": [
    {
      "method": "GET",
      "path": "/main-page-2",
      "handler": "main-page2.find",
      "config": {
        "policies": []
      }
    },
    {
      "method": "PUT",
      "path": "/main-page-2",
      "handler": "main-page2.update",
      "config": {
        "policies": []
      }
    },
    {
      "method": "DELETE",
      "path": "/main-page-2",
      "handler": "main-page2.delete",
      "config": {
        "policies": []
      }
    }
  ]
}
